{"senales":[{"id_categoria_senal":1,"id_categoria_analisis":3,"score_riesgo":"30.00","categorias_observacion":null,"plataformas_digitales":["Twitter"],"contenido_detectado":"Comentarios sobre tr??fico vehicular en hora pico - Usuarios reportan demoras de hasta 2 horas en principales v??as de acceso","metadatos":{"reportes":45,"ubicacion":"Bogot?? D.C."},"url_origen":null,"id_senal_detectada":13,"fecha_deteccion":"2025-12-10T14:20:00","fecha_actualizacion":"2025-12-10T20:50:46.534454","estado":"DETECTADA","usuario_asignado_id":null,"fecha_resolucion":null,"notas_resolucion":null},{"id_categoria_senal":2,"id_categoria_analisis":2,"score_riesgo":"65.00","categorias_observacion":null,"plataformas_digitales":["WhatsApp"],"contenido_detectado":"Incremento de quejas sobre falta de agua potable en zona rural - 25 familias afectadas sin acceso al recurso vital","metadatos":{"reportes":25,"urgencia":"alta","ubicacion":"La Guajira"},"url_origen":null,"id_senal_detectada":12,"fecha_deteccion":"2025-12-10T08:15:00","fecha_actualizacion":"2025-12-10T20:50:46.534454","estado":"EN_REVISION","usuario_asignado_id":null,"fecha_resolucion":null,"notas_resolucion":null}],"total":15,"skip":0,"limit":2,"has_more":true}